{
  "type": "minecraft:chest",
  "pools": [
    {
      "rolls": 1,
      "entries": [
        {
          "type": "minecraft:item",
          "name": "levelhearts:heart_container",
          "weight": 8
        }
      ]
    }
  ]
}